<?xml version="1.0" encoding="UTF-8"?>
<session version="1.0">
<refactoring accessors="true" comment="Delete element from project &apos;insurance-company-customer-survey-questioner-client&apos;&#x0D;&#x0A;- Original project: &apos;insurance-company-customer-survey-questioner-client&apos;&#x0D;&#x0A;- Original element: &apos;insurance-company-customer-survey-questioner-client/src/lk.edu.cis.sliit.beds.styles&apos;" description="Delete element" element1="/src&lt;lk.edu.cis.sliit.beds.styles" elements="1" flags="589830" id="org.eclipse.jdt.ui.delete" resources="0" stamp="1607350950485" subPackages="false" version="1.0"/>
</session>